<?xml version="1.0" encoding="utf-8"?>
<!-- Generator: Adobe Illustrator 15.1.0, SVG Export Plug-In  -->
<!DOCTYPE svg PUBLIC "-//W3C//DTD SVG 1.1//EN" "http://www.w3.org/Graphics/SVG/1.1/DTD/svg11.dtd" [
	<!ENTITY ns_flows "http://ns.adobe.com/Flows/1.0/">
]>
<svg version="1.1"
	 xmlns="http://www.w3.org/2000/svg" xmlns:xlink="http://www.w3.org/1999/xlink" xmlns:a="http://ns.adobe.com/AdobeSVGViewerExtensions/3.0/"
	 x="0px" y="0px" width="29px" height="53px" viewBox="-1 0 29 53" enable-background="new -1 0 29 53" xml:space="preserve">
<defs>
</defs>
<path fill="#DE1E43" d="M0.614,0.553c-0.801,0.8-0.801,2-0.1,2.9l21.8,23.1l-21.8,23.099c-0.699,0.801-0.699,2,0.101,2.801
	c0.399,0.3,0.899,0.5,1.399,0.5c0.601,0,1.101-0.201,1.5-0.6l23-24.5c0.701-0.701,0.701-1.9,0-2.701L3.416,0.652
	C2.715-0.147,1.416-0.248,0.614,0.553"/>
</svg>
