<?xml version="1.0" encoding="utf-8"?>
<!-- Generator: Adobe Illustrator 15.1.0, SVG Export Plug-In  -->
<!DOCTYPE svg PUBLIC "-//W3C//DTD SVG 1.1//EN" "http://www.w3.org/Graphics/SVG/1.1/DTD/svg11.dtd" [
	<!ENTITY ns_flows "http://ns.adobe.com/Flows/1.0/">
]>
<svg version="1.1"
	 xmlns="http://www.w3.org/2000/svg" xmlns:xlink="http://www.w3.org/1999/xlink" xmlns:a="http://ns.adobe.com/AdobeSVGViewerExtensions/3.0/"
	 x="0px" y="0px" width="48px" height="37px" viewBox="0 -0.028 48 37" enable-background="new 0 -0.028 48 37"
	 xml:space="preserve">
<defs>
</defs>
<path fill="#DE1E43" d="M43.799,16.332c0.131-0.78,0.197-1.569,0.199-2.36C43.982,6.24,37.702-0.015,29.971,0
	c-5.502,0.011-10.487,3.244-12.742,8.262C12.41,7.042,7.516,9.96,6.295,14.779c-0.024,0.094-0.046,0.188-0.067,0.283
	c-5.473,2.637-7.772,9.211-5.136,14.684c1.833,3.806,5.683,6.226,9.906,6.228h26c6.075-0.005,10.996-4.934,10.992-11.009
	C47.987,21.597,46.442,18.416,43.799,16.332 M36.998,33.973h-26c-4.971,0.002-9.003-4.024-9.006-8.995
	c-0.003-3.619,2.163-6.887,5.496-8.296c0.32-0.135,0.548-0.426,0.6-0.77c0.589-3.821,4.164-6.44,7.985-5.852
	c0.473,0.073,0.937,0.194,1.385,0.362c0.247,0.103,0.523,0.103,0.77,0c0.243-0.113,0.43-0.318,0.52-0.57
	c2.306-6.213,9.211-9.38,15.426-7.075c4.684,1.739,7.801,6.198,7.823,11.195c-0.005,0.864-0.099,1.725-0.279,2.57
	c-0.073,0.383,0.083,0.773,0.399,1c4.104,2.805,5.156,8.405,2.353,12.509C42.784,32.516,39.985,33.986,36.998,33.973 M29.858,28.973
	c-0.18,0.303-0.506,0.489-0.86,0.489c-0.18,0-0.354-0.048-0.51-0.141c-2.768-1.668-6.232-1.668-9,0
	c-0.503,0.229-1.095,0.004-1.323-0.499c-0.195-0.433-0.061-0.941,0.323-1.221c3.386-2.031,7.615-2.031,11,0
	c0.48,0.274,0.647,0.884,0.373,1.364C29.86,28.968,29.859,28.97,29.858,28.973 M16.708,18.682l-0.3,0.29l0.3,0.29
	c0.392,0.389,0.395,1.021,0.006,1.414l-0.006,0.006c-0.389,0.392-1.022,0.395-1.414,0.006l-0.006-0.006l-0.29-0.3l-0.29,0.3
	c-0.389,0.392-1.022,0.395-1.414,0.006l-0.006-0.006c-0.392-0.389-0.394-1.022-0.006-1.414l0.006-0.006l0.3-0.29l-0.3-0.29
	c-0.392-0.392-0.392-1.028,0-1.42c0.392-0.392,1.028-0.392,1.42,0l0.29,0.3l0.29-0.3c0.392-0.392,1.028-0.392,1.42,0
	S17.101,18.29,16.708,18.682 M34.708,18.682l-0.3,0.29l0.3,0.29c0.394,0.389,0.396,1.021,0.007,1.414l-0.007,0.006
	c-0.389,0.392-1.021,0.395-1.414,0.006l-0.006-0.006l-0.29-0.3l-0.29,0.3c-0.389,0.392-1.021,0.395-1.414,0.006l-0.006-0.006
	c-0.393-0.389-0.394-1.022-0.006-1.414l0.006-0.006l0.301-0.29l-0.301-0.29c-0.393-0.392-0.393-1.028,0-1.42s1.028-0.392,1.42,0
	l0.29,0.3l0.29-0.3c0.393-0.392,1.028-0.392,1.42,0C35.102,17.654,35.102,18.29,34.708,18.682"/>
</svg>
