<?xml version="1.0" encoding="utf-8"?>
<!-- Generator: Adobe Illustrator 15.1.0, SVG Export Plug-In  -->
<!DOCTYPE svg PUBLIC "-//W3C//DTD SVG 1.1//EN" "http://www.w3.org/Graphics/SVG/1.1/DTD/svg11.dtd" [
	<!ENTITY ns_flows "http://ns.adobe.com/Flows/1.0/">
]>
<svg version="1.1"
	 xmlns="http://www.w3.org/2000/svg" xmlns:xlink="http://www.w3.org/1999/xlink" xmlns:a="http://ns.adobe.com/AdobeSVGViewerExtensions/3.0/"
	 x="0px" y="0px" width="100px" height="100px" viewBox="0 0 100 100" enable-background="new 0 0 100 100" xml:space="preserve">
<defs>
</defs>
<path fill="#DE1E43" d="M50,4c25.364,0,46,20.636,46,46c0,25.364-20.636,46-46,46C24.636,96,4,75.364,4,50C4,24.636,24.636,4,50,4
	 M50,0C22.386,0,0,22.386,0,50c0,27.614,22.386,50,50,50c27.614,0,50-22.386,50-50C100,22.386,77.614,0,50,0"/>
<path fill="#DE1E43" d="M30,53c1.104,0,2,0.896,2,2c0,9.925,8.075,18,18,18s18-8.075,18-18c0-1.104,0.896-2,2-2s2,0.896,2,2
	c0,12.131-9.869,22-22,22s-22-9.869-22-22C28,53.896,28.896,53,30,53"/>
<path fill="#DE1E43" d="M35,30c2.762,0,5,2.239,5,5s-2.238,5-5,5s-5-2.239-5-5S32.238,30,35,30"/>
<path fill="#DE1E43" d="M65,30c2.762,0,5,2.239,5,5s-2.238,5-5,5s-5-2.239-5-5S62.238,30,65,30"/>
</svg>
